{
  "data": {
    "Page": {
      "pageInfo": {
        "total": 5000,
        "perPage": 20,
        "currentPage": 1,
        "lastPage": 250,
        "hasNextPage": true
      },
      "media": [
        {
          "id": 181776
        },
        {
          "id": 181642
        },
        {
          "id": 181641
        },
        {
          "id": 181474
        },
        {
          "id": 181473
        },
        {
          "id": 181472
        },
        {
          "id": 181471
        },
        {
          "id": 181470
        },
        {
          "id": 181469
        },
        {
          "id": 181468
        },
        {
          "id": 181460
        },
        {
          "id": 181449
        },
        {
          "id": 181447
        },
        {
          "id": 181444
        },
        {
          "id": 181443
        },
        {
          "id": 181440
        },
        {
          "id": 181284
        },
        {
          "id": 181277
        },
        {
          "id": 181244
        },
        {
          "id": 181182
        }
      ]
    }
  }
}